…
```
$args
   n1    n2 mean1 mean2   sd1   sd2 
 "50"  "50"   "5"   "7"   "3"   "4" 

$data
# A tibble: 100 × 2
   group values
   <dbl>  <dbl>
 1     1   7.11
 2     1   4.93
 3     1   6.85
 4     1   5.42
 5     1   2.09
 6     1   7.92
 7     1   5.06
 8     1   3.41
 9     1   9.79
10     1   3.83
# ℹ 90 more rows
```
…
